g
.V()
.has('entityId', 'AWS.EC2.159636093902.ap-south-1.Instance.i-05e32110fa3f2f605')
.project('identity', 'relationshipsOut', 'relationshipsOut1')
.by(identity())
.by(outE('all').inV())
.by(inE('all').outV())